C1,ID0083,470,230,0,0,0,0,0.0
C1,ID0084,610,30,0,0,0,0,0
C1,ID0085,210,80,0,50,0,0,0
C1,ID0086,920,150,0,40,0,0,0
C1,ID0087,360,300,0,70,0,0,0
C1,ID0088,440,120,0,0,0,0,0
C1,ID0089,700,190,0,30,0,0,0
C2,ID0090,620,260,10,40,0,0,0
C2,ID0091,540,280,0,40,0,0,0
C2,ID0092,300,130,10,120,0,0,0
C2,ID0093,380,210,0,30,0,0,0
C2,ID0094,1410,520,0,40,0,0,0
C3,ID0095,40,90,0,30,0,0,0
C3,ID0096,30,110,0,30,0,0,0
C3,ID0097,850,280,0,0,0,0,0
C3,ID0098,380,240,0,10,0,0,0
C3,ID0099,190,60,0,0,0,0,0
C4,ID0100,390,190,0,0,0,0,0
C4,ID0101,250,130,0,0,0,0,0
C4,ID0102,420,620,0,40,0,0,0
C4,ID0103,420,410,0,10,0,0,0
C4,ID0104,160,80,0,70,0,0,0
C4,ID0105,330,250,0,0,0,0,0
C4,ID0106,80,100,0,0,0,0,0
